[gd_scene load_steps=2 format=2]

[ext_resource path="res://icon.png" type="Texture" id=1]

[node name="Viewport1" type="Node2D"]

[node name="TextureRect" type="TextureRect" parent="."]
self_modulate = Color( 1, 1, 1, 0.113725 )
margin_right = 960.0
margin_bottom = 540.0
rect_scale = Vector2( 0.5, 0.5 )
texture = ExtResource( 1 )
expand = true
stretch_mode = 2
__meta__ = {
"_edit_use_anchors_": false
}

[node name="Sprite1" type="Sprite" parent="."]
position = Vector2( 39.9322, 39.8185 )
texture = ExtResource( 1 )
